time,open,close,high,low,volume
1607595420000,10.4,10.4,10.4,10.4,55.0
1607596380000,10.4,10.4,10.4,10.4,32.3798077
1607598240000,10.4,10.4,10.4,10.4,3.11
1607599620000,9.2925,9.2925,9.2925,9.2925,0.00101408
1607599920000,9.7,9.7,9.7,9.7,0.42114841
1607600520000,9.2877,9.2877,9.2877,9.2877,0.0010012
1607600580000,9.274,9.274,9.274,9.274,0.00115302
1607601120000,9.2972,9.2972,9.2972,9.2972,0.00129887
1607601600000,9.2731,9.2731,9.2731,9.2731,0.00120549
1607601720000,9.3016,9.3016,9.3016,9.3016,0.00827373
1607602320000,9.3262,9.3262,9.3262,9.3262,0.00118478
1607602860000,9.3678,9.3798,9.3798,9.3678,0.00247011
1607603460000,9.3539,9.3539,9.3539,9.3539,0.00105774
1607604000000,9.29,9.29,9.29,9.29,0.00125225
1607604060000,9.304,9.304,9.304,9.304,0.00118309
1607604600000,9.3223,9.3223,9.3223,9.3223,0.00100318
1607605140000,9.3433,9.3663,9.3663,9.3433,0.00215194
1607605620000,9.2876,9.2686,9.2876,9.2686,246.0
1607606100000,9.2615,9.2615,9.2615,9.2615,0.00115064
1607606160000,9.26,9.2385,9.26,9.2385,0.18588736
1607606760000,9.2779,9.2779,9.2779,9.2779,0.00115519
1607607240000,9.2882,9.2882,9.2882,9.2882,0.00121539
1607607300000,9.2376,9.2376,9.2376,9.2376,0.00119753
1607607780000,9.2461,9.2461,9.2461,9.2461,0.00109345
1607607900000,9.19,9.19,9.19,9.19,5.0
1607608140000,9.2049,9.2049,9.2049,9.2049,0.34064218
1607608620000,9.2301,9.1918,9.2301,9.1918,0.00232901
1607609100000,9.23,9.23,9.23,9.23,0.00103928
1607609640000,9.176,9.1343,9.176,9.1343,0.00249882
1607610060000,9.1698,9.1698,9.1698,9.1698,0.28825904
1607610600000,9.1645,9.1645,9.1645,9.1645,0.00104766
1607610660000,9.1245,9.1245,9.1245,9.1245,0.00126496
1607611200000,9.1541,9.115,9.1541,9.115,0.0024004
1607611500000,9.1397,9.1397,9.1397,9.1397,0.18591798
1607612100000,9.1376,9.0977,9.1376,9.0977,0.00231121
1607612580000,9.1504,9.1504,9.1504,9.1504,0.00123347
1607613120000,9.1178,9.1178,9.1178,9.1178,0.00118787
1607613660000,9.0516,9.0516,9.0516,9.0516,0.00107586
1607614200000,9.1252,9.1252,9.1252,9.1252,0.00127878
1607614320000,9.1097,9.1097,9.1097,9.1097,0.11973883
1607614560000,9.1402,9.1402,9.1402,9.1402,0.07419521999999999
1607615160000,9.2195,9.2195,9.2195,9.2195,0.00125913
1607615760000,9.236,9.236,9.236,9.236,0.00102151
1607616300000,9.259,9.259,9.259,9.259,0.00103703
1607616840000,9.286,9.286,9.286,9.286,0.00120429
1607616900000,9.2383,9.2383,9.2383,9.2383,0.0012769
1607617380000,9.2802,9.2802,9.2802,9.2802,0.09601323
1607617920000,9.2847,9.2847,9.2847,9.2847,0.00109499
1607618520000,9.3128,9.3128,9.3128,9.3128,0.00100356
1607619120000,9.3522,9.3522,9.3522,9.3522,0.00125615
1607619600000,9.3544,9.3544,9.3544,9.3544,0.00126335
1607619660000,9.3042,9.3042,9.3042,9.3042,0.00121704
1607620200000,9.2947,9.2947,9.2947,9.2947,0.00123791
1607620800000,9.2804,9.2804,9.2804,9.2804,0.00126479
1607621340000,9.2951,9.2951,9.2951,9.2951,0.00104417
1607621880000,9.2988,9.2988,9.2988,9.2988,0.00124983
1607621940000,9.2888,9.2888,9.2888,9.2888,0.0641413
1607622240000,9.328,9.328,9.328,9.328,0.04179527
1607622840000,9.3446,9.3446,9.3446,9.3446,0.00104153
1607623380000,9.349,9.349,9.349,9.349,0.00114665
1607623440000,9.29,9.29,9.29,9.29,0.0011155
1607624040000,9.3671,9.3671,9.3671,9.3671,0.00113708
1607624520000,9.3263,9.2869,9.3263,9.2869,0.0023231600000000003
1607625120000,9.3031,9.3031,9.3031,9.3031,0.00125749
1607625720000,9.2854,9.2437,9.2854,9.2437,0.00213324
1607626260000,9.3102,9.3102,9.3102,9.3102,0.00121269
1607626800000,9.2934,9.2518,9.2934,9.2518,0.00228087
1607627340000,9.3028,9.3028,9.3028,9.3028,0.00125826
1607627400000,9.2954,9.2954,9.2954,9.2954,0.11521665
1607627940000,9.2824,9.2824,9.2824,9.2824,0.00113665
1607628000000,9.2444,9.2444,9.2444,9.2444,0.00122843
1607628300000,9.2801,9.2801,9.2801,9.2801,0.2446776
1607628840000,9.2829,9.2829,9.2829,9.2829,0.00107335
1607628900000,9.2425,9.2425,9.2425,9.2425,0.00123654
1607629380000,9.2452,9.2452,9.2452,9.2452,0.00123298
1607629440000,9.2067,9.2067,9.2067,9.2067,0.00107994
1607630040000,9.2847,9.2847,9.2847,9.2847,0.00109233
1607630400000,9.2816,9.2816,9.2816,9.2816,0.00770113
1607630460000,9.2796,9.2796,9.2796,9.2796,0.0142721
1607630940000,9.2853,9.2853,9.2853,9.2853,0.00123767
1607631540000,9.2904,9.2904,9.2904,9.2904,0.00106255
1607632020000,9.2887,9.2887,9.2887,9.2887,0.00128751
1607632620000,9.2854,9.2854,9.2854,9.2854,0.00123729
1607633220000,9.2933,9.2529,9.2933,9.2529,0.00226978
1607633760000,9.3007,9.3007,9.3007,9.3007,0.0011276
1607634300000,9.3026,9.3026,9.3026,9.3026,0.00103344
1607634840000,9.3113,9.3113,9.3113,9.3113,0.0012109000000000002
1607634900000,9.2822,9.2822,9.2822,9.2822,0.0012642
1607635440000,9.3132,9.3132,9.3132,9.3132,0.00106582
1607635920000,9.3025,9.3025,9.3025,9.3025,0.00119992
1607636460000,9.2898,9.2898,9.2898,9.2898,0.00101981
1607636940000,9.2833,9.2833,9.2833,9.2833,0.00129944
1607637540000,9.2753,9.2753,9.2753,9.2753,0.00123727
1607638080000,9.2684,9.2684,9.2684,9.2684,0.00116008
1607638560000,9.2849,9.2849,9.2849,9.2849,0.00112354
1607639100000,9.3007,9.3007,9.3007,9.3007,0.00126168
1607639220000,9.25,9.25,9.25,9.25,81.039304
1607639820000,9.2192,9.2192,9.2192,9.2192,0.0012679
1607640300000,9.2205,9.1817,9.2205,9.1817,0.00228994
1607640840000,9.2073,9.2073,9.2073,9.2073,0.00115836
1607641380000,9.1855,9.1855,9.1855,9.1855,0.0011104
1607641860000,9.1979,9.1979,9.1979,9.1979,0.00113488
1607642340000,9.1839,9.1839,9.1839,9.1839,0.04496877
1607642880000,9.2182,9.2182,9.2182,9.2182,0.00129338
1607643420000,9.1909,9.1909,9.1909,9.1909,0.00105205
1607643480000,9.1555,9.1555,9.1555,9.1555,0.00118796
1607643960000,9.1867,9.1867,9.1867,9.1867,0.00121468
1607644440000,9.1721,9.1721,9.1721,9.1721,0.43740859
1607644800000,9.177,9.177,9.177,9.177,0.08328968
1607645340000,9.1193,9.1193,9.1193,9.1193,0.00123041
1607645400000,9.0917,9.0917,9.0917,9.0917,0.00115383
1607645700000,9.1169,9.1169,9.1169,9.1169,0.39230847
1607646240000,9.1369,9.1369,9.1369,9.1369,0.00110802
1607646480000,9.0858,9.0858,9.0858,9.0858,34.609528000000005
1607647080000,9.0689,9.0689,9.0689,9.0689,0.0011811
1607647140000,9.0356,9.0356,9.0356,9.0356,0.00124842
1607647620000,9.0442,9.0442,9.0442,9.0442,0.00101022
1607647680000,9.0062,9.0062,9.0062,9.0062,0.00128829
1607648040000,9.0,9.0,9.0,9.0,10.0
1607648160000,8.9651,8.9651,8.9651,8.9651,0.6605094
1607648340000,8.9493,8.9506,8.9506,8.9493,0.18004669999999998
1607648520000,8.9359,8.9359,8.9359,8.9359,0.06536621
1607648580000,8.9174,8.9171,8.9174,8.9171,0.07245382
1607649120000,8.9593,8.9593,8.9593,8.9593,0.00127373
1607649660000,8.9495,8.9495,8.9495,8.9495,0.00122865
1607650140000,8.8708,8.8708,8.8708,8.8708,0.04849201
1607650320000,8.8512,8.8512,8.8512,8.8512,0.35696263
1607650620000,8.8311,8.8311,8.8311,8.8311,0.13618429
1607650680000,8.835,8.835,8.835,8.835,0.10220367
1607650800000,8.8417,8.8417,8.8417,8.8417,22.705875
1607651400000,8.8706,8.8706,8.8706,8.8706,0.00106604
1607651880000,8.8623,8.8623,8.8623,8.8623,0.00117895
1607651940000,8.8258,8.8258,8.8258,8.8258,0.00102988
1607652360000,8.8666,8.8666,8.8666,8.8666,0.20600295
1607652600000,8.842,8.842,8.842,8.842,0.01916047
1607652900000,8.8796,8.8796,8.8796,8.8796,0.11296138
1607653440000,8.8771,8.8414,8.8771,8.8414,0.0020395300000000003
1607653500000,8.8712,8.8712,8.8712,8.8712,0.00298893
1607654100000,8.9006,8.9006,8.9006,8.9006,0.00114394
1607654640000,8.9148,8.9148,8.9148,8.9148,0.00115473
1607655240000,8.9225,8.9225,8.9225,8.9225,0.00117308
1607655780000,8.9383,8.9383,8.9383,8.9383,0.00127567
1607656320000,8.8321,8.8321,8.8321,8.8321,0.00728069
1607656440000,8.8755,8.8755,8.8755,8.8755,0.53373115
1607656800000,8.8813,8.8813,8.8813,8.8813,12.0
1607657100000,8.8878,8.8878,8.8878,8.8878,10.350312599999999
1607657580000,8.9074,8.9074,8.9074,8.9074,0.00111054
1607658120000,8.9307,8.9307,8.9307,8.9307,0.00117634
1607658180000,8.8959,8.8959,8.8959,8.8959,0.00123645
1607658720000,8.9543,8.9543,8.9543,8.9543,0.00107564
1607659200000,8.9614,8.9614,8.9614,8.9614,0.00119905
1607659800000,8.9609,8.9609,8.9609,8.9609,0.00106977
1607660280000,8.9806,8.9806,8.9806,8.9806,0.0011023
1607660340000,8.9452,8.9452,8.9452,8.9452,0.00114031
1607660880000,8.9889,8.9889,8.9889,8.9889,0.0011982000000000002
1607661360000,8.971,8.971,8.971,8.971,0.00124505
1607661960000,8.9943,8.9943,8.9943,8.9943,0.08806889
1607662500000,9.0578,9.0578,9.0578,9.0578,0.0010344000000000002
1607663100000,9.0843,9.0432,9.0843,9.0432,0.00251375
1607663700000,9.0926,9.0926,9.0926,9.0926,0.00125597
1607664240000,9.1034,9.1034,9.1034,9.1034,0.00121556
1607664300000,9.0792,9.0792,9.0792,9.0792,0.00107097
1607664840000,9.1023,9.1023,9.1023,9.1023,0.0012745999999999999
1607665440000,9.0464,9.0464,9.0464,9.0464,0.00126019
1607665920000,8.9945,8.9945,8.9945,8.9945,0.00108264
1607666520000,9.0125,9.0125,9.0125,9.0125,0.00121989
1607667000000,9.0127,8.9787,9.0127,8.9787,0.00230818
1607667600000,8.9993,8.9993,8.9993,8.9993,0.00119278
1607668140000,9.0073,9.0073,9.0073,9.0073,0.00128569
1607668740000,8.972000000000003,8.972000000000003,8.972000000000003,8.972000000000003,0.00118276
1607669340000,8.9783,8.9783,8.9783,8.9783,0.00101125
1607669880000,8.9831,8.9831,8.9831,8.9831,0.00122614
1607670420000,8.9369,8.9369,8.9369,8.9369,0.00129335
1607670900000,8.9173,8.9173,8.9173,8.9173,0.04977471
1607671440000,8.8991,8.8991,8.8991,8.8991,0.00105227
1607671980000,8.8843,8.8843,8.8843,8.8843,0.0012784
1607672580000,8.8302,8.8302,8.8302,8.8302,0.00120302
1607673060000,8.8482,8.8482,8.8482,8.8482,0.0010859
1607673120000,8.8106,8.8106,8.8106,8.8106,0.0011091
1607673480000,8.8497,8.8497,8.8497,8.8497,1.12398572
1607673960000,8.8693,8.8693,8.8693,8.8693,0.00125401
1607674020000,8.8462,8.8462,8.8462,8.8462,0.0012350999999999998
1607674500000,8.8891,8.8891,8.8891,8.8891,0.00105991
1607674560000,8.855,8.855,8.855,8.855,0.00100738
1607675100000,8.9554,8.9554,8.9554,8.9554,0.00112798
1607675640000,8.9552,8.9552,8.9552,8.9552,0.00113146
1607675700000,8.9188,8.9188,8.9188,8.9188,0.00117416
1607676240000,8.9599,8.9599,8.9599,8.9599,0.00123712
1607676720000,8.9598,8.9598,8.9598,8.9598,0.00124766
1607677260000,8.9391,8.9391,8.9391,8.9391,0.00101867
1607677320000,8.9012,8.9012,8.9012,8.9012,0.00107303
1607677920000,8.8993,8.8993,8.8993,8.8993,0.00109395
1607678460000,8.9111,8.9111,8.9111,8.9111,0.00112606
1607678640000,8.8732,8.8732,8.8732,8.8732,45.032738
1607678940000,8.9273,8.9273,8.9273,8.9273,0.39258903
1607679420000,8.9348,8.9348,8.9348,8.9348,0.00116176
1607679780000,8.8973,8.8973,8.8973,8.8973,0.011522399999999999
1607680260000,8.879,8.879,8.879,8.879,0.16982072
1607680800000,8.9295,8.9295,8.9295,8.9295,0.0011799000000000002
1607680860000,8.8804,8.8804,8.8804,8.8804,0.00106853
1607681160000,8.9155,8.9155,8.9155,8.9155,0.10253743
1607681700000,8.9104,8.9104,8.9104,8.9104,0.0011665999999999998
1607682120000,8.8858,8.8858,8.8858,8.8858,0.02311159
1607682600000,8.9478,8.9127,8.9478,8.9127,0.00245938
1607683200000,8.9219,8.9219,8.9219,8.9219,0.00108809
1607683680000,8.9408,8.8988,8.9408,8.8988,0.00220882
1607684280000,8.9082,8.8591,8.9082,8.8591,0.00240291
1607684700000,8.8661,8.8661,8.8661,8.8661,0.26932882
1607685300000,8.8442,8.8062,8.8442,8.8062,0.00212826
1607685540000,8.829,8.829,8.829,8.829,0.2695149000000001
1607686140000,8.8145,8.7782,8.8145,8.7782,0.00222912
1607686200000,8.8227,8.8526,8.8526,8.8227,100.0
1607686740000,8.7896,8.7896,8.7896,8.7896,0.00105261
1607686800000,8.7527,8.7527,8.7527,8.7527,0.00123102
1607687340000,8.7758,8.7758,8.7758,8.7758,0.00125983
1607687400000,8.6911,8.6911,8.6911,8.6911,0.00114993
1607687880000,8.7125,8.6758,8.7125,8.6758,0.00237061
1607688420000,8.7376,8.7376,8.7376,8.7376,0.00109695
1607688960000,8.7366,8.7029,8.7366,8.7029,0.00221948
1607689380000,8.7507,8.7606,8.7606,8.7507,141.65297027999995
1607689740000,8.7781,8.7781,8.7781,8.7781,0.31835615
1607690280000,8.7515,8.7515,8.7515,8.7515,0.00127015
1607690820000,8.8061,8.8061,8.8061,8.8061,0.00128295
1607691300000,8.7805,8.7805,8.7805,8.7805,0.00128017
1607691840000,8.8563,8.8282,8.8563,8.8282,0.0022593400000000003
1607692440000,8.9392,8.9218,8.9392,8.9218,0.00244593
1607692980000,8.9349,8.9106,8.9349,8.9106,0.00206779
1607693580000,8.9353,8.9353,8.9353,8.9353,0.00102904
1607694120000,8.9287,8.9287,8.9287,8.9287,0.00103532
1607694720000,8.9459,8.9459,8.9459,8.9459,0.00107946
1607695320000,8.936,8.936,8.936,8.936,0.00117512
1607695860000,8.95,8.9346,8.95,8.9346,0.00250919
1607695920000,8.95,8.95,8.95,8.95,54.88875594
1607696460000,9.0126,9.0126,9.0126,9.0126,0.00106671
1607697000000,9.113,9.113,9.113,9.113,0.00126218
1607697060000,9.0846,9.0846,9.0846,9.0846,0.00117107
1607697540000,9.0979,9.0979,9.0979,9.0979,0.00102679
1607697600000,9.0719,9.0719,9.0719,9.0719,0.00128028
1607698140000,9.1154,9.1154,9.1154,9.1154,0.00109638
1607698680000,9.1781,9.1539,9.1781,9.1539,0.0022684000000000003
1607699280000,9.1974,9.1974,9.1974,9.1974,0.00107844
1607699760000,9.1547,9.1547,9.1547,9.1547,0.00111829
1607700360000,9.0967,9.0967,9.0967,9.0967,0.00124633
1607700900000,9.1297,9.1297,9.1297,9.1297,0.00116273
1607701440000,9.1092,9.1092,9.1092,9.1092,0.00115662
1607701620000,9.112,9.112,9.112,9.112,0.02688056
1607702160000,9.1269,9.1269,9.1269,9.1269,0.00109555
1607702700000,9.1347,9.1347,9.1347,9.1347,0.0012985999999999998
1607703240000,9.1251,9.1251,9.1251,9.1251,0.0012436
1607703840000,9.1214,9.1206,9.1214,9.1206,0.02736861
1607704380000,9.103,9.0746,9.103,9.0746,0.00220935
1607704920000,8.9974,8.9974,8.9974,8.9974,0.00100892
1607704980000,8.9677,8.9677,8.9677,8.9677,0.00114803
1607705460000,8.9752,8.9752,8.9752,8.9752,0.00108305
1607706060000,8.9741,8.9741,8.9741,8.9741,0.00109094
1607706300000,8.9759,8.9759,8.9759,8.9759,0.7139966999999999
1607706840000,8.9743,8.9743,8.9743,8.9743,0.00104281
1607707440000,8.9667,8.9426,8.9667,8.9426,0.00232461
1607707740000,8.9582,8.9582,8.9582,8.9582,0.01442492
1607707800000,8.9625,8.9625,8.9625,8.9625,0.07249704
1607708280000,8.9443,8.9443,8.9443,8.9443,0.00108101
1607708460000,8.9545,8.9545,8.9545,8.9545,0.00834359
1607708940000,8.9273,8.9273,8.9273,8.9273,0.00105337
1607709480000,8.9541,8.9541,8.9541,8.9541,0.00103144
1607710020000,8.9602,8.9602,8.9602,8.9602,0.00126312
1607710080000,8.937999999999997,8.937999999999997,8.937999999999997,8.937999999999997,0.00126899
1607710140000,8.9654,8.9654,8.9654,8.9654,0.007393
1607710680000,8.9649,8.9649,8.9649,8.9649,0.00128802
1607710980000,8.9712,8.9675,8.9712,8.9644,5.0022395300000015
1607711580000,8.9778,8.9778,8.9778,8.9778,0.00100299
1607712120000,8.9983,8.9983,8.9983,8.9983,0.00128979
1607712660000,8.9954,8.9954,8.9954,8.9954,0.00104706
1607713140000,8.9993,8.9993,8.9993,8.9993,0.00114842
1607713620000,8.99,8.99,8.99,8.99,0.00100861
1607714160000,8.9896,8.9645,8.9896,8.9645,0.02899932
1607714340000,9.0052,9.0052,9.0052,9.0052,0.12540307
1607714880000,9.0236,9.0236,9.0236,9.0236,0.00129516
1607715480000,9.015,9.015,9.015,9.015,0.00117483
1607715540000,8.9885,8.9885,8.9885,8.9885,0.00106172
1607716140000,9.0117,9.0117,9.0117,9.0117,0.00117438
1607716740000,9.0136,9.0136,9.0136,9.0136,0.00109301
1607717280000,9.0091,9.0091,9.0091,9.0091,0.00105823
1607717820000,9.0045,9.0045,9.0045,9.0045,0.0010044000000000001
1607717880000,8.9799,8.9799,8.9799,8.9799,0.00104243
1607718360000,9.008,9.008,9.008,9.008,0.00107242
1607718420000,8.9823,8.9823,8.9823,8.9823,0.00114885
1607719020000,9.0121,9.0121,9.0121,9.0121,0.00127352
1607719560000,9.0079,9.0079,9.0079,9.0079,0.00106112
1607720040000,9.013,9.013,9.013,9.013,0.02785288
1607720220000,9.0124,9.0124,9.0124,9.0124,0.011000000000000001
1607720760000,9.014,9.014,9.014,9.014,0.00112145
1607721300000,9.0453,9.0204,9.0453,9.0204,0.00239232
1607721840000,9.0551,9.0551,9.0551,9.0551,0.00106752
1607722320000,9.0642,9.0388,9.0642,9.0388,0.00229448
1607722920000,9.0727,9.0727,9.0727,9.0727,0.00100465
1607723460000,9.145,9.145,9.145,9.145,0.0011431
1607723940000,9.1493,9.1493,9.1493,9.1493,0.00120747
1607724480000,9.152000000000001,9.152000000000001,9.152000000000001,9.152000000000001,0.00127445
1607725080000,9.1028,9.1028,9.1028,9.1028,0.00104406
1607725620000,9.0869,9.0869,9.0869,9.0869,0.00102873
1607726220000,9.1049,9.1049,9.1049,9.1049,0.0011084
1607726760000,9.0965,9.0702,9.0965,9.0702,0.00222622
1607727000000,9.0911,9.0911,9.0911,9.0911,0.01205323
1607727600000,9.0846,9.0846,9.0846,9.0846,0.00128058
1607728140000,9.0826,9.0555,9.0826,9.0555,0.0024523
1607728680000,9.0736,9.0736,9.0736,9.0736,0.0010366
1607728740000,9.051,9.051,9.051,9.051,0.00102283
1607729280000,9.0435,9.017000000000001,9.0435,9.017000000000001,0.00217282
1607729400000,9.0556,9.0556,9.0556,9.0556,0.25809907
1607729880000,9.0342,9.0342,9.0342,9.0342,0.00105301
1607730420000,9.0361,9.0361,9.0361,9.0361,0.00108326
1607730960000,9.0333,9.0333,9.0333,9.0333,0.00121603
1607731320000,9.0392,9.0392,9.0392,9.0392,0.09813947
1607731800000,9.0837,9.0837,9.0837,9.0837,0.0010428
1607731860000,9.0696,9.0696,9.0696,9.0696,0.00111927
1607732460000,9.1207,9.1207,9.1207,9.1207,0.0012902999999999999
1607732940000,9.1695,9.1408,9.1695,9.1408,0.00220523
1607733540000,9.2452,9.2189,9.2452,9.2189,0.00249749
1607734140000,9.2274,9.2274,9.2274,9.2274,0.00114078
1607734740000,9.241,9.241,9.241,9.241,0.0011568
1607735220000,9.2487,9.2487,9.2487,9.2487,0.0012664000000000002
1607735280000,9.2173,9.2173,9.2173,9.2173,0.00116791
1607735400000,9.197000000000001,9.197000000000001,9.197000000000001,9.197000000000001,1.31765032
1607735940000,9.1394,9.1394,9.1394,9.1394,0.00119779
1607736480000,9.1225,9.1225,9.1225,9.1225,0.00603294
1607737020000,9.1597,9.1337,9.1597,9.1337,0.00251184
1607737500000,9.1694,9.1694,9.1694,9.1694,0.02459382
1607738040000,9.1841,9.1528,9.1841,9.1528,0.00237691
1607738580000,9.1828,9.1828,9.1828,9.1828,0.00118628
1607739120000,9.1883,9.1883,9.1883,9.1883,0.00109652
1607739660000,9.187999999999999,9.187999999999999,9.187999999999999,9.187999999999999,0.001077
1607739720000,9.1529,9.1529,9.1529,9.1529,0.00103929
1607740260000,9.2057,9.2057,9.2057,9.2057,0.0012362
1607740800000,9.2047,9.2047,9.2047,9.2047,0.00127507
1607741280000,9.1939,9.1939,9.1939,9.1939,0.0012974
1607741880000,9.1946,9.1946,9.1946,9.1946,0.00107302
1607742360000,9.1899,9.1899,9.1899,9.1899,0.00117777
1607742960000,9.1934,9.1934,9.1934,9.1934,0.00116574
1607743440000,9.1993,9.1722,9.1993,9.1722,0.00244352
1607744040000,9.193,9.193,9.193,9.193,0.00100556
1607744100000,9.1678,9.1678,9.1678,9.1678,0.00116522
1607744580000,9.1964,9.1964,9.1964,9.1964,0.00104616
1607745120000,9.21,9.21,9.21,9.21,0.00109964
1607745660000,9.2322,9.1997,9.2322,9.1997,0.00226268
1607746200000,9.2849,9.2849,9.2849,9.2849,0.00126391
1607746740000,9.2807,9.2807,9.2807,9.2807,0.00107404
1607746800000,9.2529,9.2529,9.2529,9.2529,0.00129281
1607747340000,9.2843,9.2843,9.2843,9.2843,0.00115006
1607747880000,9.2993,9.2993,9.2993,9.2993,0.00103245
1607748420000,9.3295,9.3295,9.3295,9.3295,0.00100262
1607749020000,9.317,9.2786,9.317,9.2786,0.00226765
1607749620000,9.3304,9.3304,9.3304,9.3304,0.00111821
1607750100000,9.3311,9.3311,9.3311,9.3311,0.00113941
1607750160000,9.2943,9.2943,9.2943,9.2943,0.00110512
1607750700000,9.3241,9.3241,9.3241,9.3241,0.00121618
1607751180000,9.3552,9.3552,9.3552,9.3552,0.00125018
1607751780000,9.3553,9.3553,9.3553,9.3553,0.00118405
1607752320000,9.3405,9.3405,9.3405,9.3405,0.00107182
1607752800000,9.3319,9.3319,9.3319,9.3319,0.001057
1607753400000,9.3325,9.3325,9.3325,9.3325,0.00120386
1607753940000,9.3394,9.3394,9.3394,9.3394,0.00107152
1607754540000,9.3338,9.3338,9.3338,9.3338,0.00119522
1607755080000,9.2456,9.2456,9.2456,9.2456,0.00122033
1607755560000,9.1998,9.1998,9.1998,9.1998,0.38590947
1607756100000,9.2831,9.2831,9.2831,9.2831,0.00121887
1607756640000,9.2988,9.2988,9.2988,9.2988,0.00102355
1607757240000,9.3269,9.3269,9.3269,9.3269,0.00115363
1607757780000,9.3235,9.3235,9.3235,9.3235,0.0010546
1607757840000,9.2856,9.2856,9.2856,9.2856,0.00107124
1607758320000,9.3193,9.3193,9.3193,9.3193,0.00107955
1607758320000,9.3193,9.3193,9.3193,9.3193,0.00107955
1607758920000,9.3233,9.3233,9.3233,9.3233,0.00108072
1607759460000,9.3331,9.3331,9.3331,9.3331,0.00123266
1607760060000,9.342,9.342,9.342,9.342,0.00127651
1607760600000,9.3228,9.3228,9.3228,9.3228,0.00100714
1607761080000,9.3003,9.3003,9.3003,9.3003,0.00101181
1607761680000,9.2865,9.2865,9.2865,9.2865,0.00100046
1607762220000,9.2725,9.2358,9.2725,9.2358,0.00224314
1607762760000,9.2617,9.2617,9.2617,9.2617,0.00121218
1607762940000,9.2711,9.2711,9.2711,9.2711,0.25681646
1607763480000,9.2832,9.2446,9.2832,9.2446,0.00222163
1607764020000,9.2609,9.2609,9.2609,9.2609,0.00128878
1607764620000,9.2759,9.2759,9.2759,9.2759,0.00106171
1607765160000,9.2939,9.2939,9.2939,9.2939,0.00126008
1607765220000,9.2567,9.2567,9.2567,9.2567,0.00118213
1607765820000,9.314,9.314,9.314,9.314,0.00111103
1607766360000,9.2717,9.2717,9.2717,9.2717,0.00122346
1607766960000,9.2704,9.2704,9.2704,9.2704,0.00108906
1607767440000,9.2645,9.2441,9.2645,9.2441,0.0022004900000000003
1607768040000,9.2466,9.2466,9.2466,9.2466,0.0011629
1607768100000,9.2203,9.2203,9.2203,9.2203,0.00126074
1607768640000,9.2346,9.2346,9.2346,9.2346,0.1928589
1607769180000,9.2179,9.2179,9.2179,9.2179,0.00123506
1607769780000,9.2162,9.2162,9.2162,9.2162,0.0011289000000000002
1607770260000,9.2426,9.2426,9.2426,9.2426,0.00125272
1607770800000,9.2246,9.1959,9.2246,9.1959,0.00223761
1607771160000,9.2281,9.2281,9.2281,9.2281,0.11452415
1607771640000,9.2352,9.2352,9.2352,9.2352,0.00100328
1607772180000,9.2197,9.2197,9.2197,9.2197,0.219
1607772300000,9.2258,9.2258,9.2258,9.2258,0.03917122
1607772840000,9.2294,9.2294,9.2294,9.2294,0.00110543
1607773380000,9.2234,9.2234,9.2234,9.2234,0.00113499
1607773860000,9.2292,9.2292,9.2292,9.2292,0.00101836
1607774400000,9.2267,9.2267,9.2267,9.2267,0.0012194
1607774940000,9.2248,9.2248,9.2248,9.2248,0.00111574
1607775540000,9.2122,9.2122,9.2122,9.2122,0.00101269
1607776080000,9.2167,9.2167,9.2167,9.2167,0.00106123
1607776140000,9.1895,9.1895,9.1895,9.1895,0.00116471
1607776680000,9.1867,9.1604,9.1867,9.1604,0.00220516
1607777280000,9.2111,9.1831,9.2111,9.1831,0.0024075
1607777880000,9.2247,9.1985,9.2247,9.1985,0.00224253
1607778360000,9.2198,9.2198,9.2198,9.2198,0.00101772
1607778900000,9.214,9.214,9.214,9.214,0.00102898
1607779380000,9.2159,9.2159,9.2159,9.2159,0.0012687999999999998
1607779920000,9.2079,9.2079,9.2079,9.2079,0.00127946
1607780520000,9.205,9.205,9.205,9.205,0.0011967
1607781060000,9.1989,9.1989,9.1989,9.1989,0.0012323
1607781540000,9.1908,9.1908,9.1908,9.1908,0.00107541
1607782140000,9.1924,9.1924,9.1924,9.1924,0.00110073
1607782680000,9.192,9.192,9.192,9.192,0.00118106
1607783220000,9.1948,9.1686,9.1948,9.1686,0.0023367500000000003
1607783760000,9.1921,9.1921,9.1921,9.1921,0.00125128
1607784240000,9.159,9.159,9.159,9.159,0.00105709
1607784300000,9.1312,9.1312,9.1312,9.1312,0.00103149
1607784780000,9.0878,9.0866,9.0878,9.0866,0.46264078
1607785380000,9.0926,9.0926,9.0926,9.0926,0.00108519
1607785920000,9.0728,9.0728,9.0728,9.0728,0.00125902
1607786460000,9.0799,9.0799,9.0799,9.0799,0.00109257
1607787000000,9.0787,9.0787,9.0787,9.0787,0.00100517
1607787540000,9.0726,9.0726,9.0726,9.0726,0.00112263
1607788020000,9.0688,9.0688,9.0688,9.0688,0.00111153
1607788080000,9.0433,9.0433,9.0433,9.0433,0.00120831
1607788680000,9.0901,9.0901,9.0901,9.0901,0.00126717
1607789160000,9.076,9.076,9.076,9.076,0.00114575
1607789700000,9.0718,9.0718,9.0718,9.0718,0.00102438
1607789760000,9.0462,9.0462,9.0462,9.0462,0.00124344
1607790300000,9.0679,9.0679,9.0679,9.0679,0.00119752
1607790840000,9.0707,9.0707,9.0707,9.0707,0.00119704
1607791380000,9.0672,9.0421,9.0672,9.0421,0.00245819
1607791920000,9.0597,9.0327,9.0597,9.0327,0.00242118
1607792460000,9.0594,9.0594,9.0594,9.0594,0.00119223
1607793000000,9.0642,9.0642,9.0642,9.0642,0.00123552
1607793060000,9.0386,9.0386,9.0386,9.0386,0.00111283
1607793600000,9.0588,9.0588,9.0588,9.0588,0.00101005
1607794200000,8.9848,8.9848,8.9848,8.9848,0.00125803
1607794680000,9.0165,9.0165,9.0165,9.0165,0.06557861
1607794800000,9.0268,9.0268,9.0268,9.0268,0.50237092
1607795340000,9.0388,9.0388,9.0388,9.0388,0.00119948
1607795940000,9.0403,9.0403,9.0403,9.0403,0.00116614
1607796480000,9.064,9.0375,9.064,9.0375,0.0020252300000000003
1607797020000,9.0658,9.0658,9.0658,9.0658,0.00100437
1607797620000,9.0602,9.0323,9.0602,9.0323,0.00254402
1607798100000,9.0686,9.0686,9.0686,9.0686,0.16231447999999998
1607798580000,9.0812,9.0812,9.0812,9.0812,0.00101208
1607799180000,9.0864,9.0864,9.0864,9.0864,0.00128241
1607799720000,9.0854,9.0854,9.0854,9.0854,0.00107867
1607800200000,9.0894,9.0894,9.0894,9.0894,0.00103863
1607800260000,9.0638,9.0638,9.0638,9.0638,0.00113173
1607800740000,9.0891,9.0891,9.0891,9.0891,0.00120381
1607800800000,9.0632,9.0632,9.0632,9.0632,0.00104748
1607801340000,9.0861,9.0604,9.0861,9.0604,0.00244141
1607801940000,9.0869,9.0869,9.0869,9.0869,0.00103428
1607802000000,9.061,9.061,9.061,9.061,0.00116933
1607802480000,9.0885,9.0885,9.0885,9.0885,0.00113798
1607803020000,9.0895,9.0895,9.0895,9.0895,0.00101239
1607803080000,9.0645,9.0645,9.0645,9.0645,0.00111873
1607803560000,9.0935,9.0935,9.0935,9.0935,0.00126762
1607804160000,9.0811,9.0811,9.0811,9.0811,0.00117857
1607804640000,9.0784,9.0784,9.0784,9.0784,0.0010515999999999998
1607805240000,9.081,9.081,9.081,9.081,0.00123905
1607805720000,9.124,9.124,9.124,9.124,0.00101897
1607805780000,9.0971,9.0971,9.0971,9.0971,0.00115616
1607806260000,9.1179,9.1179,9.1179,9.1179,0.00113832
1607806800000,9.1182,9.1182,9.1182,9.1182,0.00110599
1607807340000,9.1161,9.1161,9.1161,9.1161,0.00128909
1607807820000,9.1144,9.1144,9.1144,9.1144,0.00108603
1607808420000,9.1216,9.1216,9.1216,9.1216,0.00124567
1607808900000,9.1349,9.1349,9.1349,9.1349,0.00124159
1607809500000,9.1331,9.1331,9.1331,9.1331,0.00110884
1607810040000,9.1711,9.1711,9.1711,9.1711,0.00112592
1607810580000,9.2177,9.1941,9.2177,9.1941,0.00229134
1607811180000,9.1948,9.1948,9.1948,9.1948,0.00129943
1607811660000,9.2349,9.2349,9.2349,9.2349,0.0010828
1607812200000,9.1971,9.1971,9.1971,9.1971,0.00111142
1607812260000,9.1646,9.1646,9.1646,9.1646,0.00109282
1607812740000,9.163,9.163,9.163,9.163,0.00105986
1607813340000,9.2374,9.2374,9.2374,9.2374,0.00116685
1607813880000,9.248,9.248,9.248,9.248,0.00107149
1607814480000,9.2174,9.2174,9.2174,9.2174,0.00119244
1607815020000,9.2604,9.2604,9.2604,9.2604,0.00123598
1607815500000,9.2556,9.2556,9.2556,9.2556,0.00114249
1607815560000,9.2297,9.2297,9.2297,9.2297,0.00127417
1607816100000,9.2455,9.2455,9.2455,9.2455,0.00114505
1607816700000,9.2298,9.2298,9.2298,9.2298,0.00117821
1607817240000,9.2352,9.2352,9.2352,9.2352,0.0011934
1607817780000,9.2601,9.2601,9.2601,9.2601,0.00111063
1607818320000,9.3195,9.3195,9.3195,9.3195,0.00129528
1607818860000,9.324,9.2975,9.324,9.2975,0.00224495
1607819400000,9.3219,9.3219,9.3219,9.3219,0.00104724
1607820000000,9.3213,9.3213,9.3213,9.3213,0.00108243
1607820600000,9.3111,9.3111,9.3111,9.3111,0.00126007
1607821140000,9.2945,9.2945,9.2945,9.2945,0.00119268
1607821740000,9.2876,9.2876,9.2876,9.2876,0.00126065
1607822220000,9.2867,9.2531,9.2867,9.2531,0.00232307
1607822760000,9.2587,9.2587,9.2587,9.2587,0.00126016
1607822820000,9.2328,9.2328,9.2328,9.2328,0.00122203
1607823360000,9.28,9.28,9.28,9.28,0.0011241
1607823600000,9.278,9.278,9.278,9.278,0.01779996
1607824140000,9.279,9.279,9.279,9.279,0.00115815
1607824680000,9.2365,9.2365,9.2365,9.2365,0.00102893
1607824740000,9.204,9.204,9.204,9.204,0.00100307
1607825340000,9.2461,9.219,9.2461,9.219,0.00212707
1607825880000,9.242,9.242,9.242,9.242,0.00105103
1607826180000,9.2398,9.2398,9.2398,9.2398,0.15950421
1607826360000,9.253,9.253,9.253,9.253,0.02682315
1607826840000,9.2469,9.2469,9.2469,9.2469,0.00105013
1607826900000,9.28,9.2605,9.28,9.2605,0.02679521
1607826960000,9.28,9.28,9.28,9.28,14.18227717
1607827440000,9.3042,9.2648,9.3042,9.2648,0.00235508
1607827980000,9.2967,9.2604,9.2967,9.2604,0.0024595700000000003
1607828520000,9.2647,9.2647,9.2647,9.2647,0.00111606
1607829120000,9.2912,9.2554,9.2912,9.2554,0.00237109
1607829480000,9.2859,9.2859,9.2859,9.2859,0.01052566
1607830020000,9.2861,9.2861,9.2861,9.2861,0.00113853
1607830620000,9.265,9.265,9.265,9.265,0.00122246
1607831160000,9.2684,9.2684,9.2684,9.2684,0.00108502
1607831700000,9.2572,9.2572,9.2572,9.2572,0.00100317
1607832240000,9.2421,9.2421,9.2421,9.2421,0.00124447
1607832780000,9.2023,9.2023,9.2023,9.2023,0.00101053
1607833320000,9.2154,9.2154,9.2154,9.2154,0.00121612
1607833920000,9.2041,9.2041,9.2041,9.2041,0.00106811
1607834460000,9.224,9.224,9.224,9.224,0.00101571
1607834520000,9.2309,9.2309,9.2309,9.2309,0.1459258
1607835120000,9.1899,9.1899,9.1899,9.1899,0.00118861
1607835660000,9.1806,9.1806,9.1806,9.1806,0.001283
1607836140000,9.1872,9.1872,9.1872,9.1872,0.00109622
1607836440000,9.1849,9.1849,9.1849,9.1849,0.1725557
1607836920000,9.1589,9.1328,9.1589,9.1328,0.00232075
1607837460000,9.1688,9.1688,9.1688,9.1688,0.00111946
1607838060000,9.1732,9.1732,9.1732,9.1732,0.00118732
1607838540000,9.1721,9.1721,9.1721,9.1721,0.06622162
1607839080000,9.1713,9.1713,9.1713,9.1713,0.00119188
1607839620000,9.1739,9.1739,9.1739,9.1739,0.0012659
1607840160000,9.1738,9.1738,9.1738,9.1738,0.00107959
1607840220000,9.1453,9.1453,9.1453,9.1453,0.00115806
1607840700000,9.1733,9.148,9.1733,9.148,0.00232012
1607841180000,9.1711,9.1711,9.1711,9.1711,0.00124317
1607841240000,9.1466,9.1466,9.1466,9.1466,0.00122741
1607841720000,9.1788,9.1788,9.1788,9.1788,0.00110138
1607841780000,9.1521,9.1521,9.1521,9.1521,0.00101097
1607842320000,9.2048,9.2048,9.2048,9.2048,0.00127048
1607842860000,9.2168,9.2168,9.2168,9.2168,0.00126057
1607842920000,9.1918,9.1918,9.1918,9.1918,0.00107198
1607843400000,9.2337,9.2337,9.2337,9.2337,0.00106579
1607843940000,9.2897,9.2897,9.2897,9.2897,0.00100155
1607844480000,9.2951,9.2951,9.2951,9.2951,0.00118641
1607845080000,9.2874,9.2874,9.2874,9.2874,0.00121301
1607845620000,9.2854,9.2854,9.2854,9.2854,0.00122649
1607846160000,9.2823,9.2448,9.2823,9.2448,0.0024651100000000004
1607846640000,9.2863,9.2863,9.2863,9.2863,0.00104067
1607847180000,9.2855,9.2855,9.2855,9.2855,0.00105629
1607847660000,9.2976,9.2976,9.2976,9.2976,0.00107844
1607847720000,9.2602,9.2602,9.2602,9.2602,0.00127076
1607848260000,9.3241,9.3241,9.3241,9.3241,0.00127221
1607848320000,9.2878,9.2878,9.2878,9.2878,0.00124772
1607848860000,9.3213,9.3213,9.3213,9.3213,0.00126762
1607849460000,9.3184,9.2804,9.3184,9.2804,0.00227521
1607850000000,9.3041,9.2679,9.3041,9.2679,0.00248292
1607850540000,9.3011,9.3011,9.3011,9.3011,0.0012792
1607850840000,9.304,9.304,9.304,9.304,0.08387704
1607851380000,9.2866,9.2866,9.2866,9.2866,0.00113351
1607851920000,9.2883,9.2497,9.2883,9.2497,0.00247847
1607852520000,9.2799,9.2799,9.2799,9.2799,0.00103698
1607853000000,9.2742,9.2742,9.2742,9.2742,0.00125061
1607853540000,9.3006,9.3006,9.3006,9.3006,0.00115227
1607854140000,9.3349,9.3349,9.3349,9.3349,0.00101242
1607854620000,9.3567,9.3567,9.3567,9.3567,0.00117234
1607855220000,9.3548,9.3548,9.3548,9.3548,0.00115006
1607855700000,9.3772,9.3772,9.3772,9.3772,0.00124123
1607855760000,9.334,9.334,9.334,9.334,0.0010136
1607856300000,9.3989,9.3989,9.3989,9.3989,0.00126585
1607856960000,9.4811,9.4323,9.4811,9.4323,0.00201573
1607857560000,9.5373,9.5373,9.5373,9.5373,0.00112622
1607858040000,9.524,9.524,9.524,9.524,0.00124502
1607858580000,9.5927,9.5593,9.5927,9.5593,0.00211521
1607859120000,9.591,9.5492,9.591,9.5492,0.00211998
1607859720000,9.5398,9.5398,9.5398,9.5398,0.00129555
1607860200000,9.5279,9.5279,9.5279,9.5279,0.00118407
1607860260000,9.492,9.492,9.492,9.492,0.00119055
1607860620000,9.4374,9.4374,9.4374,9.4374,0.0709017
1607860860000,9.455,9.455,9.455,9.455,0.24182405
1607861400000,9.444,9.444,9.444,9.444,0.00114426
1607861940000,9.4209,9.4209,9.4209,9.4209,0.00110489
1607862480000,9.4314,9.4314,9.4314,9.4314,0.00115428
1607863020000,9.4798,9.4798,9.4798,9.4798,0.00128883
1607863500000,9.5016,9.5016,9.5016,9.5016,0.00105386
1607864100000,9.5098,9.4725,9.5098,9.4725,0.00244817
1607864640000,9.5284,9.5284,9.5284,9.5284,0.00125069
1607865120000,9.5356,9.5356,9.5356,9.5356,0.00118452
1607865660000,9.5333,9.5333,9.5333,9.5333,0.00122064
1607866200000,9.513,9.513,9.513,9.513,0.00129713
1607866800000,9.5133,9.5133,9.5133,9.5133,0.00119679
1607867400000,9.496,9.496,9.496,9.496,0.00118084
1607867880000,9.4833,9.4833,9.4833,9.4833,0.00102461
1607868480000,9.4626,9.4252,9.4626,9.4252,0.00232969
1607869020000,9.4198,9.4198,9.4198,9.4198,0.00111975
1607869560000,9.4891,9.4891,9.4891,9.4891,0.00113829
1607870100000,9.4806,9.4434,9.4806,9.4434,0.0022018000000000003
1607870640000,9.4662,9.4662,9.4662,9.4662,0.00110345
1607871180000,9.4484,9.4114,9.4484,9.4114,0.00229933
1607871720000,9.4586,9.4586,9.4586,9.4586,0.00108939
1607872320000,9.4674,9.4674,9.4674,9.4674,0.00111982
1607872440000,9.461,9.461,9.461,9.461,0.02776279
1607873040000,9.3735,9.3735,9.3735,9.3735,0.00111317
1607873520000,9.3682,9.3682,9.3682,9.3682,0.00111671
1607873520000,9.3682,9.3682,9.3682,9.3682,0.00111671
1607873520000,9.3682,9.3682,9.3682,9.3682,0.00111671
1607874060000,9.3813,9.3813,9.3813,9.3813,0.00116755
1607874300000,9.3829,9.3829,9.3829,9.3829,0.6565770400000001
1607874780000,9.3806,9.3806,9.3806,9.3806,0.00126166
1607874900000,9.3719,9.3719,9.3719,9.3719,0.00410547
1607875200000,9.4017,9.4017,9.4017,9.4017,0.03956303
1607875800000,9.4779,9.4779,9.4779,9.4779,0.00100517
